基于你的分析我认为潜在问题：
1、术语表选择逻辑的局限性：
当前流程总是选择最新的术语表（max by creation_time），但最新术语表不一定是最佳选择。例如，某个旧术语表可能更全面（包含更多物流术语，如“冷链运输”）或更符合特定业务场景（如海运合同）。
改进建议：引入术语表优先级或元数据（如术语数量、适用场景），允许选择最合适的术语表。

2、术语表更新与维护不足：
流程缺少术语表更新的机制。如果文档中出现新术语（如“绿色物流”），现有术语表不会自动更新，可能导致术语遗漏。
改进建议：在翻译前检查文档术语与现有术语表的差异，动态更新术语表。

3、术语表规模管理：
对于高频翻译任务（如每天处理数百份物流合同），术语表数量可能快速增长（list_glossaries 返回大量结果）。当前流程未限制术语表数量或提供清理机制，可能导致存储和查询效率下降。
改进建议：实现术语表过期机制（如删除 30 天未使用的术语表）或合并相似术语表。

一下是新的方案：
您的优化建议非常合理：为每种语言对（如中文-英语、中文-印尼语）维护一个单一的术语表，翻译时查询该术语表，更新时合并新术语并替换旧术语表。这种方法可以有效避免多个术语表导致的选择困难和规模管理问题，特别适合物流行业（如顺丰、菜鸟、J&T Express）的高频翻译场景，确保术语一致性和管理简洁性。

基于 DeepL API 文档（截至 2025-04-15）和您提供的 `main.py` 和 `glossary_manager.py`，我将优化术语表管理逻辑，实现每种语言对单一术语表的策略。以下是具体分析和修改后的代码，严格聚焦于问题本身，不涉及无关内容。

---

### 1. DeepL API 支持分析

DeepL API 的术语表管理功能（`v3/glossaries`）支持单一术语表策略，但需注意以下限制和功能：

- **创建术语表** (`POST /v3/glossaries`)：创建新术语表，指定名称、语言对和 TSV 条目。
- **列术语表** (`GET /v3/glossaries`)：返回所有术语表元数据（`glossary_id`、 `name`、 `source_lang`、 `target_lang`、 `entry_count`）。
- **获取条目** (`GET /v3/glossaries/{glossary_id}/entries`)：获取术语表 TSV 条目，用于合并新术语。
- **删除术语表** (`DELETE /v3/glossaries/{glossary_id}`)：删除指定术语表。
- **更新限制**：DeepL 不支持直接编辑术语表（无 `PATCH` 或 `PUT`）。更新需通过获取条目、合并新术语、删除旧术语表、创建新术语表实现。
- **文档澄清**：您提供的 `glossary_manager.py` 包含 `update_glossary`（`PATCH`）和 `replace_glossary`（`PUT`），但 DeepL API 文档未提及这些端点，可能是自定义实现或未来版本。当前假设这些方法无效，依赖删除-重建策略。

**单一术语表支持**：
- 通过固定命名（如 `Main_Glossary_ZH-EN`），`GET /glossaries` 可查找单一术语表。
- `GET /entries` 支持获取现有术语，`DELETE` 和 `POST` 支持替换术语表。
- 逻辑需确保每种语言对（`source_lang-target_lang`）只有一个术语表。

---

### 2. 优化逻辑设计

为每种语言对（如 `zh-en`、 `zh-id`）维护单一术语表，具体逻辑如下：

1. **术语表命名**：
   - 使用固定名称：`Main_Glossary_{source_lang}-{target_lang}`（如 `Main_Glossary_ZH-EN`）。
   - 通过 `list_glossaries` 查找匹配名称的术语表。

2. **查询术语表**：
   - 翻译前，检查是否存在该语言对的术语表（按名称匹配）。
   - 若存在，获取其 `glossary_id` 和条目。

3. **合并与更新**：
   - 提取文档新术语（`GeminiTermExtractor.extract_terms`）。
   - 获取现有术语表条目（`get_entries`）。
   - 合并新旧术语，去重并验证（确保符合物流标准，如 GB/T 18354-2006）。
   - 删除旧术语表（`delete_glossary`）。
   - 创建新术语表（`create_glossary`），包含合并后的术语。

4. **删除其他术语表**：
   - 若发现同一语言对的非主术语表，删除以确保单一性。

5. **缓存更新**：
   - 更新本地缓存（`cache/glossaries/{glossary_id}.json`）。

--

### 4. 修改说明

#### 4.1 `main.py` 修改
- **单一术语表逻辑**：
  - 定义固定名称：`Main_Glossary_{source_lang}-{target_lang}`。
  - 使用 `list_glossaries` 查找匹配名称的术语表。
  - 删除同一语言对的非主术语表，确保单一性。
- **术语合并**：
  - 提取新术语（`extract_terms`）。
  - 获取现有术语（`get_glossary_entries`）。
  - 合并并去重（`set`），验证物流术语（`_get_logistics_terms`）。
  - 删除旧术语表，创建新术语表。
- **错误处理**：
  - 若术语表处理失败，继续翻译（无术语表）。
  - 若无有效术语，跳过术语表创建。

#### 4.2 `glossary_manager.py` 修改
- **修复 `get_entries`**：
  - 移除 `source_lang` 和 `target_lang` 参数（DeepL API 不需要）。
  - 添加 `Accept: text/tab-separated-values` 头，确保返回 TSV。
- **新增 `get_glossary_entries`**：
  - 返回术语对列表（`List[tuple]`），便于合并。
  - 支持缓存（存储 `entries` 在 JSON）。
- **移除无效方法**：
  - 删除 `update_glossary`、`replace_glossary`、`delete_dictionary`、`merge_entries`、`check_glossary_size`、`get_latest_glossary`、`GlossarySyncManager`，因 DeepL API 不支持或与单一术语表策略无关。
- **简化 `get_glossary_details`**：
  - 使用 `get_glossary_entries`，移除 JSON 解析逻辑。

---

### 5. DeepL API 兼容性

- **支持单一术语表**：
  - `GET /v3/glossaries` 查找主术语表。
  - `GET /v3/glossaries/{glossary_id}/entries` 获取条目。
  - `DELETE` 和 `POST` 实现替换。
- **限制处理**：
  - 无直接编辑功能，通过删除-重建实现更新。
  - 命名约定（`Main_Glossary_ZH-EN`）确保唯一性。
- **物流适用性**：
  - 单一术语表简化管理，适合顺丰的“电子面单”、J&T Express 的“resi”。
  - 合并逻辑覆盖 GB/T 18354-2006 术语（如“提单”）。

---

### 6. 使用与测试建议

1. **运行环境**：
   - 确保 `DEEPL_API_KEY` 和 `DEEPL_API_TYPE` 配置正确。
   - 依赖 `httpx`、`term_extractor`、`document_processor`。

2. **测试用例**：
   - **单一术语表**：翻译 `zh-en` 文档（含“提单”），验证创建 `Main_Glossary_ZH-EN`。
   - **更新**：再次翻译含“绿色物流”，验证术语表包含两者。
   - **去重**：重复输入“运单”，验证无重复。
   - **清理**：创建非主术语表，验证被删除。

3. **性能优化**：
   - 缓存术语条目（`get_glossary_entries`）。
   - 限制术语表大小（10MB）。

---

### 7. 回答总结

- **单一术语表策略**：
  - 每种语言对（如 `zh-en`、 `zh-id`）维护一个术语表（`Main_Glossary_{source_lang}-{target_lang}`）。
  - 翻译时查询该术语表，合并新术语后替换。
  - 删除其他同语言对术语表。
- **DeepL API 支持**：
  - 通过 `GET /glossaries`、`GET /entries`、`DELETE`、`POST` 实现。
  - 无需 `PATCH` 或 `PUT`（文档不支持）。
- **代码优化**：
  - `main.py` 实现单一术语表逻辑。
  - `glossary_manager.py` 优化条目获取和缓存。




让我分析一下当前的术语管理流程：

1. **术语提取流程** (`term_extractor.py`):
- 使用 Gemini API 从文档中提取术语
- 支持多语言对的术语提取
- 包含术语验证和后处理
- 提供 DeepL 格式的术语表生成

2. **术语表管理流程** (`glossary_manager.py`):
- 维护与 DeepL API 的交互
- 实现单一术语表策略（每个语言对一个主术语表）
- 使用本地文件缓存存储术语表数据
- 提供术语表的 CRUD 操作

3. **主要操作流程** (`main.py` 中的翻译流程):
```python
# 当前流程
1. 提取文档文本
2. 提取新术语
3. 更新 DeepL 术语表
4. 使用更新后的术语表进行翻译
```

需要调整的方向：

1. **数据持久化改造**：
- 将术语存储从文件缓存迁移到 PostgreSQL
- 在更新 DeepL 术语表之前，先更新数据库
- 使用数据库事务确保数据一致性

2. **术语表管理流程调整**：
```python
# 新流程建议
1. 提取文档文本
2. 提取新术语
3. 将新术语保存到数据库
4. 从数据库获取完整术语集
5. 删除 DeepL 相同的术语表
5. 更新 DeepL 术语表
6. 使用更新后的术语表进行翻译
```

3. **需要修改的关键方法**：
- `GlossaryManager.get_or_create_main_glossary`
- `GlossaryManager.update_main_glossary`
- `GlossaryManager._cache_language_pair_glossary`






本地术语表查询实现提供了以下功能：
查询参数:
name: 术语表名称（模糊匹配）
start_date: 创建时间开始日期
end_date: 创建时间结束日期
source_lang: 源语言
target_lang: 目标语言
page: 页码
page_size: 每页数量

返回参数：
   {
     "total": 100,
     "page": 1,
     "page_size": 10,
     "total_pages": 10,
     "glossaries": [
       {
         "id": 1,
         "deepl_glossary_id": "xxx",
         "name": "术语表名称",
         "source_lang": "ZH",
         "target_lang": "EN",
         "created_at": "2024-04-27T10:00:00",
         "updated_at": "2024-04-27T11:00:00",
         "entries": [
           {
             "id": 1,
             "source_term": "源词",
             "target_term": "目标词",
             "created_at": "2024-04-27T10:00:00"
           }
         ]
       }
     ]
   }

   使用示例：GET /api/glossaries/search?name=Main&start_date=2024-04-01&end_date=2024-04-30&source_lang=zh&target_lang=en&page=1&page_size=10
    



GlossaryDatabaseSearch.tsx:76 
            
            
           GET http://localhost:5173/api/glossaries/search?page=1&page_size=10 net::ERR_ABORTED 500 (Internal Server Error)
handleSearch @ GlossaryDatabaseSearch.tsx:76
onFinish @ antd.js?v=e9454099:19630
(anonymous) @ antd.js?v=e9454099:19504
Promise.then
(anonymous) @ antd.js?v=e9454099:19500
onSubmit @ antd.js?v=e9454099:19684
callCallback2 @ chunk-TYILIMWK.js?v=e9454099:3674
invokeGuardedCallbackDev @ chunk-TYILIMWK.js?v=e9454099:3699
invokeGuardedCallback @ chunk-TYILIMWK.js?v=e9454099:3733
invokeGuardedCallbackAndCatchFirstError @ chunk-TYILIMWK.js?v=e9454099:3736
executeDispatch @ chunk-TYILIMWK.js?v=e9454099:7014
processDispatchQueueItemsInOrder @ chunk-TYILIMWK.js?v=e9454099:7034
processDispatchQueue @ chunk-TYILIMWK.js?v=e9454099:7043
dispatchEventsForPlugins @ chunk-TYILIMWK.js?v=e9454099:7051
(anonymous) @ chunk-TYILIMWK.js?v=e9454099:7174
batchedUpdates$1 @ chunk-TYILIMWK.js?v=e9454099:18913
batchedUpdates @ chunk-TYILIMWK.js?v=e9454099:3579
dispatchEventForPluginEventSystem @ chunk-TYILIMWK.js?v=e9454099:7173
dispatchEventWithEnableCapturePhaseSelectiveHydrationWithoutDiscreteEventReplay @ chunk-TYILIMWK.js?v=e9454099:5478
dispatchEvent @ chunk-TYILIMWK.js?v=e9454099:5472
dispatchDiscreteEvent @ chunk-TYILIMWK.js?v=e9454099:5449
GlossaryDatabaseSearch.tsx:88 Search error: Error: Search failed
    at handleSearch (GlossaryDatabaseSearch.tsx:78:15)
handleSearch @ GlossaryDatabaseSearch.tsx:88
await in handleSearch
onFinish @ antd.js?v=e9454099:19630
(anonymous) @ antd.js?v=e9454099:19504
Promise.then
(anonymous) @ antd.js?v=e9454099:19500
onSubmit @ antd.js?v=e9454099:19684
callCallback2 @ chunk-TYILIMWK.js?v=e9454099:3674
invokeGuardedCallbackDev @ chunk-TYILIMWK.js?v=e9454099:3699
invokeGuardedCallback @ chunk-TYILIMWK.js?v=e9454099:3733
invokeGuardedCallbackAndCatchFirstError @ chunk-TYILIMWK.js?v=e9454099:3736
executeDispatch @ chunk-TYILIMWK.js?v=e9454099:7014
processDispatchQueueItemsInOrder @ chunk-TYILIMWK.js?v=e9454099:7034
processDispatchQueue @ chunk-TYILIMWK.js?v=e9454099:7043
dispatchEventsForPlugins @ chunk-TYILIMWK.js?v=e9454099:7051
(anonymous) @ chunk-TYILIMWK.js?v=e9454099:7174
batchedUpdates$1 @ chunk-TYILIMWK.js?v=e9454099:18913
batchedUpdates @ chunk-TYILIMWK.js?v=e9454099:3579
dispatchEventForPluginEventSystem @ chunk-TYILIMWK.js?v=e9454099:7173
dispatchEventWithEnableCapturePhaseSelectiveHydrationWithoutDiscreteEventReplay @ chunk-TYILIMWK.js?v=e9454099:5478
dispatchEvent @ chunk-TYILIMWK.js?v=e9454099:5472
dispatchDiscreteEvent @ chunk-TYILIMWK.js?v=e9454099:5449

